﻿{
    "thermoProfile": [
        {
			"type": "heating",
            "duration": "15000",
            "enable": true,
            "temperature": 86.7,
            "maxTemperatureChangeRate": 16.2
        },
        {
			"type": "maintaining",
            "duration": "30000",
            "enable": true,
            "temperature": 86.7
        },
        {
			"type": "cooling",
            "duration": "25000",
            "enable": true,
            "temperature": 62.3,
            "maxTemperatureChangeRate": 16.2
        },
        {
            "duration": "40000",
            "enable": false
        },
        {
			"type": "heating",
            "duration": "15000",
            "enable": true,
            "temperature": 120.3,
            "maxTemperatureChangeRate": 16.2
        },
        {
			"type": "maintaining",
            "duration": "30000",
            "enable": true,
            "temperature": 120.3,
            "temperatureChangeRate": 46.2
        },
        {
            "duration": "0",
            "enable": false
        }
    ]
}